-- Merging decision tree log ---
action#com.tassadar.multirommgr.debug.CHECK_UPDATES
INJECTED from /home/jimmy/Bureau/MultiROMMgr-master/MultiROMMgr/src/main/AndroidManifest.xml:54:17-73
	android:name
		INJECTED from /home/jimmy/Bureau/MultiROMMgr-master/MultiROMMgr/src/main/AndroidManifest.xml
		ADDED from /home/jimmy/Bureau/MultiROMMgr-master/MultiROMMgr/src/main/AndroidManifest.xml:54:25-70
provider#com.tassadar.multirommgr.romlistwidget.RomListDataProvider
INJECTED from /home/jimmy/Bureau/MultiROMMgr-master/MultiROMMgr/src/main/AndroidManifest.xml:68:9-70:38
	android:authorities
		INJECTED from /home/jimmy/Bureau/MultiROMMgr-master/MultiROMMgr/src/main/AndroidManifest.xml
		ADDED from /home/jimmy/Bureau/MultiROMMgr-master/MultiROMMgr/src/main/AndroidManifest.xml:69:13-60
	android:exported
		ADDED from /home/jimmy/Bureau/MultiROMMgr-master/MultiROMMgr/src/main/AndroidManifest.xml:70:13-36
	android:name
		ADDED from /home/jimmy/Bureau/MultiROMMgr-master/MultiROMMgr/src/main/AndroidManifest.xml:68:19-68
manifest
ADDED from /home/jimmy/Bureau/MultiROMMgr-master/MultiROMMgr/src/main/AndroidManifest.xml:2:1-80:12
INJECTED from /home/jimmy/Bureau/MultiROMMgr-master/MultiROMMgr/src/main/AndroidManifest.xml:2:1-80:12
INJECTED from /home/jimmy/Bureau/MultiROMMgr-master/MultiROMMgr/src/main/AndroidManifest.xml:2:1-80:12
INJECTED from /home/jimmy/Bureau/MultiROMMgr-master/MultiROMMgr/src/main/AndroidManifest.xml:2:1-80:12
MERGED from [com.android.support:appcompat-v7:23.4.0] /home/jimmy/.gradle/caches/transforms-2/files-2.1/b6e8ad6a7924278952067cb4668e7c85/appcompat-v7-23.4.0/AndroidManifest.xml:17:1-27:12
MERGED from [com.android.support:animated-vector-drawable:23.4.0] /home/jimmy/.gradle/caches/transforms-2/files-2.1/38fef0e4b5203c035472c88dc9505dd9/animated-vector-drawable-23.4.0/AndroidManifest.xml:2:1-9:12
MERGED from [com.android.support:support-vector-drawable:23.4.0] /home/jimmy/.gradle/caches/transforms-2/files-2.1/0c52f7f8361bf36fa2f2557ac7cdabf7/support-vector-drawable-23.4.0/AndroidManifest.xml:2:1-9:12
MERGED from [com.android.support:support-v4:23.4.0] /home/jimmy/.gradle/caches/transforms-2/files-2.1/665f9e147106ca2078069be4e6858379/support-v4-23.4.0/AndroidManifest.xml:17:1-24:12
INJECTED from /home/jimmy/Bureau/MultiROMMgr-master/MultiROMMgr/src/main/AndroidManifest.xml:2:1-80:12
INJECTED from /home/jimmy/Bureau/MultiROMMgr-master/MultiROMMgr/src/main/AndroidManifest.xml:2:1-80:12
INJECTED from /home/jimmy/Bureau/MultiROMMgr-master/MultiROMMgr/src/main/AndroidManifest.xml:2:1-80:12
	package
		ADDED from /home/jimmy/Bureau/MultiROMMgr-master/MultiROMMgr/src/main/AndroidManifest.xml:3:5-39
		INJECTED from /home/jimmy/Bureau/MultiROMMgr-master/MultiROMMgr/src/main/AndroidManifest.xml
		INJECTED from /home/jimmy/Bureau/MultiROMMgr-master/MultiROMMgr/src/main/AndroidManifest.xml
	android:versionName
		ADDED from /home/jimmy/Bureau/MultiROMMgr-master/MultiROMMgr/src/main/AndroidManifest.xml:5:5-32
		INJECTED from /home/jimmy/Bureau/MultiROMMgr-master/MultiROMMgr/src/main/AndroidManifest.xml
		INJECTED from /home/jimmy/Bureau/MultiROMMgr-master/MultiROMMgr/src/main/AndroidManifest.xml
	xmlns:android
		ADDED from /home/jimmy/Bureau/MultiROMMgr-master/MultiROMMgr/src/main/AndroidManifest.xml:2:11-69
	android:versionCode
		ADDED from /home/jimmy/Bureau/MultiROMMgr-master/MultiROMMgr/src/main/AndroidManifest.xml:4:5-30
		INJECTED from /home/jimmy/Bureau/MultiROMMgr-master/MultiROMMgr/src/main/AndroidManifest.xml
		INJECTED from /home/jimmy/Bureau/MultiROMMgr-master/MultiROMMgr/src/main/AndroidManifest.xml
uses-permission#android.permission.ACCESS_SUPERUSER
ADDED from /home/jimmy/Bureau/MultiROMMgr-master/MultiROMMgr/src/main/AndroidManifest.xml:7:5-75
	android:name
		ADDED from /home/jimmy/Bureau/MultiROMMgr-master/MultiROMMgr/src/main/AndroidManifest.xml:7:22-72
uses-permission#android.permission.INTERNET
ADDED from /home/jimmy/Bureau/MultiROMMgr-master/MultiROMMgr/src/main/AndroidManifest.xml:8:5-67
	android:name
		ADDED from /home/jimmy/Bureau/MultiROMMgr-master/MultiROMMgr/src/main/AndroidManifest.xml:8:22-64
uses-permission#android.permission.WRITE_EXTERNAL_STORAGE
ADDED from /home/jimmy/Bureau/MultiROMMgr-master/MultiROMMgr/src/main/AndroidManifest.xml:9:5-81
	android:name
		ADDED from /home/jimmy/Bureau/MultiROMMgr-master/MultiROMMgr/src/main/AndroidManifest.xml:9:22-78
uses-permission#android.permission.WAKE_LOCK
ADDED from /home/jimmy/Bureau/MultiROMMgr-master/MultiROMMgr/src/main/AndroidManifest.xml:10:5-68
	android:name
		ADDED from /home/jimmy/Bureau/MultiROMMgr-master/MultiROMMgr/src/main/AndroidManifest.xml:10:22-65
uses-permission#android.permission.RECEIVE_BOOT_COMPLETED
ADDED from /home/jimmy/Bureau/MultiROMMgr-master/MultiROMMgr/src/main/AndroidManifest.xml:11:5-81
	android:name
		ADDED from /home/jimmy/Bureau/MultiROMMgr-master/MultiROMMgr/src/main/AndroidManifest.xml:11:22-78
application
ADDED from /home/jimmy/Bureau/MultiROMMgr-master/MultiROMMgr/src/main/AndroidManifest.xml:13:5-78:19
MERGED from [com.android.support:appcompat-v7:23.4.0] /home/jimmy/.gradle/caches/transforms-2/files-2.1/b6e8ad6a7924278952067cb4668e7c85/appcompat-v7-23.4.0/AndroidManifest.xml:25:5-20
MERGED from [com.android.support:appcompat-v7:23.4.0] /home/jimmy/.gradle/caches/transforms-2/files-2.1/b6e8ad6a7924278952067cb4668e7c85/appcompat-v7-23.4.0/AndroidManifest.xml:25:5-20
MERGED from [com.android.support:animated-vector-drawable:23.4.0] /home/jimmy/.gradle/caches/transforms-2/files-2.1/38fef0e4b5203c035472c88dc9505dd9/animated-vector-drawable-23.4.0/AndroidManifest.xml:7:5-20
MERGED from [com.android.support:animated-vector-drawable:23.4.0] /home/jimmy/.gradle/caches/transforms-2/files-2.1/38fef0e4b5203c035472c88dc9505dd9/animated-vector-drawable-23.4.0/AndroidManifest.xml:7:5-20
MERGED from [com.android.support:support-vector-drawable:23.4.0] /home/jimmy/.gradle/caches/transforms-2/files-2.1/0c52f7f8361bf36fa2f2557ac7cdabf7/support-vector-drawable-23.4.0/AndroidManifest.xml:7:5-20
MERGED from [com.android.support:support-vector-drawable:23.4.0] /home/jimmy/.gradle/caches/transforms-2/files-2.1/0c52f7f8361bf36fa2f2557ac7cdabf7/support-vector-drawable-23.4.0/AndroidManifest.xml:7:5-20
MERGED from [com.android.support:support-v4:23.4.0] /home/jimmy/.gradle/caches/transforms-2/files-2.1/665f9e147106ca2078069be4e6858379/support-v4-23.4.0/AndroidManifest.xml:22:5-20
MERGED from [com.android.support:support-v4:23.4.0] /home/jimmy/.gradle/caches/transforms-2/files-2.1/665f9e147106ca2078069be4e6858379/support-v4-23.4.0/AndroidManifest.xml:22:5-20
	android:label
		ADDED from /home/jimmy/Bureau/MultiROMMgr-master/MultiROMMgr/src/main/AndroidManifest.xml:17:9-41
	android:icon
		ADDED from /home/jimmy/Bureau/MultiROMMgr-master/MultiROMMgr/src/main/AndroidManifest.xml:16:9-45
	android:allowBackup
		ADDED from /home/jimmy/Bureau/MultiROMMgr-master/MultiROMMgr/src/main/AndroidManifest.xml:15:9-35
	android:theme
		ADDED from /home/jimmy/Bureau/MultiROMMgr-master/MultiROMMgr/src/main/AndroidManifest.xml:18:9-40
	android:name
		ADDED from /home/jimmy/Bureau/MultiROMMgr-master/MultiROMMgr/src/main/AndroidManifest.xml:14:9-31
activity#com.tassadar.multirommgr.MainActivity
ADDED from /home/jimmy/Bureau/MultiROMMgr-master/MultiROMMgr/src/main/AndroidManifest.xml:19:9-27:20
	android:label
		ADDED from /home/jimmy/Bureau/MultiROMMgr-master/MultiROMMgr/src/main/AndroidManifest.xml:21:13-45
	android:launchMode
		ADDED from /home/jimmy/Bureau/MultiROMMgr-master/MultiROMMgr/src/main/AndroidManifest.xml:22:13-43
	android:name
		ADDED from /home/jimmy/Bureau/MultiROMMgr-master/MultiROMMgr/src/main/AndroidManifest.xml:20:13-41
intent-filter#action:name:android.intent.action.MAIN+category:name:android.intent.category.LAUNCHER
ADDED from /home/jimmy/Bureau/MultiROMMgr-master/MultiROMMgr/src/main/AndroidManifest.xml:23:13-26:29
action#android.intent.action.MAIN
ADDED from /home/jimmy/Bureau/MultiROMMgr-master/MultiROMMgr/src/main/AndroidManifest.xml:24:17-69
	android:name
		ADDED from /home/jimmy/Bureau/MultiROMMgr-master/MultiROMMgr/src/main/AndroidManifest.xml:24:25-66
category#android.intent.category.LAUNCHER
ADDED from /home/jimmy/Bureau/MultiROMMgr-master/MultiROMMgr/src/main/AndroidManifest.xml:25:17-77
	android:name
		ADDED from /home/jimmy/Bureau/MultiROMMgr-master/MultiROMMgr/src/main/AndroidManifest.xml:25:27-74
activity#com.tassadar.multirommgr.installfragment.InstallActivity
ADDED from /home/jimmy/Bureau/MultiROMMgr-master/MultiROMMgr/src/main/AndroidManifest.xml:28:9-31:45
	android:label
		ADDED from /home/jimmy/Bureau/MultiROMMgr-master/MultiROMMgr/src/main/AndroidManifest.xml:29:13-49
	android:launchMode
		ADDED from /home/jimmy/Bureau/MultiROMMgr-master/MultiROMMgr/src/main/AndroidManifest.xml:31:13-43
	android:exported
		ADDED from /home/jimmy/Bureau/MultiROMMgr-master/MultiROMMgr/src/main/AndroidManifest.xml:30:13-37
	android:name
		ADDED from /home/jimmy/Bureau/MultiROMMgr-master/MultiROMMgr/src/main/AndroidManifest.xml:28:19-66
service#com.tassadar.multirommgr.installfragment.InstallService
ADDED from /home/jimmy/Bureau/MultiROMMgr-master/MultiROMMgr/src/main/AndroidManifest.xml:32:9-33:39
	android:exported
		ADDED from /home/jimmy/Bureau/MultiROMMgr-master/MultiROMMgr/src/main/AndroidManifest.xml:33:13-37
	android:name
		ADDED from /home/jimmy/Bureau/MultiROMMgr-master/MultiROMMgr/src/main/AndroidManifest.xml:32:18-64
activity#com.tassadar.multirommgr.SettingsActivity
ADDED from /home/jimmy/Bureau/MultiROMMgr-master/MultiROMMgr/src/main/AndroidManifest.xml:34:9-36:55
	android:label
		ADDED from /home/jimmy/Bureau/MultiROMMgr-master/MultiROMMgr/src/main/AndroidManifest.xml:36:13-52
	android:exported
		ADDED from /home/jimmy/Bureau/MultiROMMgr-master/MultiROMMgr/src/main/AndroidManifest.xml:35:13-37
	android:name
		ADDED from /home/jimmy/Bureau/MultiROMMgr-master/MultiROMMgr/src/main/AndroidManifest.xml:34:19-51
activity#com.tassadar.multirommgr.installfragment.ChangelogActivity
ADDED from /home/jimmy/Bureau/MultiROMMgr-master/MultiROMMgr/src/main/AndroidManifest.xml:37:9-39:50
	android:label
		ADDED from /home/jimmy/Bureau/MultiROMMgr-master/MultiROMMgr/src/main/AndroidManifest.xml:39:13-47
	android:exported
		ADDED from /home/jimmy/Bureau/MultiROMMgr-master/MultiROMMgr/src/main/AndroidManifest.xml:38:13-37
	android:name
		ADDED from /home/jimmy/Bureau/MultiROMMgr-master/MultiROMMgr/src/main/AndroidManifest.xml:37:19-68
receiver#com.tassadar.multirommgr.UpdateChecker$BootCompletedReceiver
ADDED from /home/jimmy/Bureau/MultiROMMgr-master/MultiROMMgr/src/main/AndroidManifest.xml:41:9-48:20
	android:enabled
		ADDED from /home/jimmy/Bureau/MultiROMMgr-master/MultiROMMgr/src/main/AndroidManifest.xml:42:13-35
	android:label
		ADDED from /home/jimmy/Bureau/MultiROMMgr-master/MultiROMMgr/src/main/AndroidManifest.xml:44:13-41
	android:exported
		ADDED from /home/jimmy/Bureau/MultiROMMgr-master/MultiROMMgr/src/main/AndroidManifest.xml:43:13-36
	android:name
		ADDED from /home/jimmy/Bureau/MultiROMMgr-master/MultiROMMgr/src/main/AndroidManifest.xml:41:19-70
intent-filter#action:name:android.intent.action.BOOT_COMPLETED
ADDED from /home/jimmy/Bureau/MultiROMMgr-master/MultiROMMgr/src/main/AndroidManifest.xml:45:13-47:29
action#android.intent.action.BOOT_COMPLETED
ADDED from /home/jimmy/Bureau/MultiROMMgr-master/MultiROMMgr/src/main/AndroidManifest.xml:46:17-79
	android:name
		ADDED from /home/jimmy/Bureau/MultiROMMgr-master/MultiROMMgr/src/main/AndroidManifest.xml:46:25-76
receiver#com.tassadar.multirommgr.UpdateChecker$UpdateCheckReceiver
ADDED from /home/jimmy/Bureau/MultiROMMgr-master/MultiROMMgr/src/main/AndroidManifest.xml:49:9-56:20
	android:enabled
		ADDED from /home/jimmy/Bureau/MultiROMMgr-master/MultiROMMgr/src/main/AndroidManifest.xml:50:13-35
	android:label
		ADDED from /home/jimmy/Bureau/MultiROMMgr-master/MultiROMMgr/src/main/AndroidManifest.xml:52:13-48
	android:exported
		ADDED from /home/jimmy/Bureau/MultiROMMgr-master/MultiROMMgr/src/main/AndroidManifest.xml:51:13-37
	android:name
		ADDED from /home/jimmy/Bureau/MultiROMMgr-master/MultiROMMgr/src/main/AndroidManifest.xml:49:19-68
intent-filter#action:name:com.tassadar.multirommgr.debug.CHECK_UPDATES
ADDED from /home/jimmy/Bureau/MultiROMMgr-master/MultiROMMgr/src/main/AndroidManifest.xml:53:13-55:29
receiver#com.tassadar.multirommgr.romlistwidget.RomListWidgetProvider
ADDED from /home/jimmy/Bureau/MultiROMMgr-master/MultiROMMgr/src/main/AndroidManifest.xml:58:9-64:20
	android:name
		ADDED from /home/jimmy/Bureau/MultiROMMgr-master/MultiROMMgr/src/main/AndroidManifest.xml:58:19-70
intent-filter#action:name:android.appwidget.action.APPWIDGET_UPDATE
ADDED from /home/jimmy/Bureau/MultiROMMgr-master/MultiROMMgr/src/main/AndroidManifest.xml:59:13-61:29
action#android.appwidget.action.APPWIDGET_UPDATE
ADDED from /home/jimmy/Bureau/MultiROMMgr-master/MultiROMMgr/src/main/AndroidManifest.xml:60:17-84
	android:name
		ADDED from /home/jimmy/Bureau/MultiROMMgr-master/MultiROMMgr/src/main/AndroidManifest.xml:60:25-81
meta-data#android.appwidget.provider
ADDED from /home/jimmy/Bureau/MultiROMMgr-master/MultiROMMgr/src/main/AndroidManifest.xml:62:13-63:64
	android:resource
		ADDED from /home/jimmy/Bureau/MultiROMMgr-master/MultiROMMgr/src/main/AndroidManifest.xml:63:17-61
	android:name
		ADDED from /home/jimmy/Bureau/MultiROMMgr-master/MultiROMMgr/src/main/AndroidManifest.xml:62:24-65
service#com.tassadar.multirommgr.romlistwidget.RomListWidgetService
ADDED from /home/jimmy/Bureau/MultiROMMgr-master/MultiROMMgr/src/main/AndroidManifest.xml:65:9-67:39
	android:exported
		ADDED from /home/jimmy/Bureau/MultiROMMgr-master/MultiROMMgr/src/main/AndroidManifest.xml:67:13-37
	android:permission
		ADDED from /home/jimmy/Bureau/MultiROMMgr-master/MultiROMMgr/src/main/AndroidManifest.xml:66:13-69
	android:name
		ADDED from /home/jimmy/Bureau/MultiROMMgr-master/MultiROMMgr/src/main/AndroidManifest.xml:65:18-68
activity#com.tassadar.multirommgr.romlistfragment.RomBootActivity
ADDED from /home/jimmy/Bureau/MultiROMMgr-master/MultiROMMgr/src/main/AndroidManifest.xml:72:9-76:53
	android:label
		ADDED from /home/jimmy/Bureau/MultiROMMgr-master/MultiROMMgr/src/main/AndroidManifest.xml:75:13-51
	android:exported
		ADDED from /home/jimmy/Bureau/MultiROMMgr-master/MultiROMMgr/src/main/AndroidManifest.xml:74:13-36
	android:theme
		ADDED from /home/jimmy/Bureau/MultiROMMgr-master/MultiROMMgr/src/main/AndroidManifest.xml:76:13-51
	android:name
		ADDED from /home/jimmy/Bureau/MultiROMMgr-master/MultiROMMgr/src/main/AndroidManifest.xml:73:13-60
uses-sdk
INJECTED from /home/jimmy/Bureau/MultiROMMgr-master/MultiROMMgr/src/main/AndroidManifest.xml reason: use-sdk injection requested
INJECTED from /home/jimmy/Bureau/MultiROMMgr-master/MultiROMMgr/src/main/AndroidManifest.xml
INJECTED from /home/jimmy/Bureau/MultiROMMgr-master/MultiROMMgr/src/main/AndroidManifest.xml
MERGED from [com.android.support:appcompat-v7:23.4.0] /home/jimmy/.gradle/caches/transforms-2/files-2.1/b6e8ad6a7924278952067cb4668e7c85/appcompat-v7-23.4.0/AndroidManifest.xml:21:5-23:78
MERGED from [com.android.support:appcompat-v7:23.4.0] /home/jimmy/.gradle/caches/transforms-2/files-2.1/b6e8ad6a7924278952067cb4668e7c85/appcompat-v7-23.4.0/AndroidManifest.xml:21:5-23:78
MERGED from [com.android.support:animated-vector-drawable:23.4.0] /home/jimmy/.gradle/caches/transforms-2/files-2.1/38fef0e4b5203c035472c88dc9505dd9/animated-vector-drawable-23.4.0/AndroidManifest.xml:5:5-44
MERGED from [com.android.support:animated-vector-drawable:23.4.0] /home/jimmy/.gradle/caches/transforms-2/files-2.1/38fef0e4b5203c035472c88dc9505dd9/animated-vector-drawable-23.4.0/AndroidManifest.xml:5:5-44
MERGED from [com.android.support:support-vector-drawable:23.4.0] /home/jimmy/.gradle/caches/transforms-2/files-2.1/0c52f7f8361bf36fa2f2557ac7cdabf7/support-vector-drawable-23.4.0/AndroidManifest.xml:5:5-43
MERGED from [com.android.support:support-vector-drawable:23.4.0] /home/jimmy/.gradle/caches/transforms-2/files-2.1/0c52f7f8361bf36fa2f2557ac7cdabf7/support-vector-drawable-23.4.0/AndroidManifest.xml:5:5-43
MERGED from [com.android.support:support-v4:23.4.0] /home/jimmy/.gradle/caches/transforms-2/files-2.1/665f9e147106ca2078069be4e6858379/support-v4-23.4.0/AndroidManifest.xml:20:5-43
MERGED from [com.android.support:support-v4:23.4.0] /home/jimmy/.gradle/caches/transforms-2/files-2.1/665f9e147106ca2078069be4e6858379/support-v4-23.4.0/AndroidManifest.xml:20:5-43
INJECTED from /home/jimmy/Bureau/MultiROMMgr-master/MultiROMMgr/src/main/AndroidManifest.xml
INJECTED from /home/jimmy/Bureau/MultiROMMgr-master/MultiROMMgr/src/main/AndroidManifest.xml
	tools:overrideLibrary
		ADDED from [com.android.support:appcompat-v7:23.4.0] /home/jimmy/.gradle/caches/transforms-2/files-2.1/b6e8ad6a7924278952067cb4668e7c85/appcompat-v7-23.4.0/AndroidManifest.xml:23:9-75
	android:targetSdkVersion
		INJECTED from /home/jimmy/Bureau/MultiROMMgr-master/MultiROMMgr/src/main/AndroidManifest.xml
		ADDED from /home/jimmy/Bureau/MultiROMMgr-master/MultiROMMgr/src/main/AndroidManifest.xml
		INJECTED from /home/jimmy/Bureau/MultiROMMgr-master/MultiROMMgr/src/main/AndroidManifest.xml
	android:minSdkVersion
		INJECTED from /home/jimmy/Bureau/MultiROMMgr-master/MultiROMMgr/src/main/AndroidManifest.xml
		ADDED from /home/jimmy/Bureau/MultiROMMgr-master/MultiROMMgr/src/main/AndroidManifest.xml
		INJECTED from /home/jimmy/Bureau/MultiROMMgr-master/MultiROMMgr/src/main/AndroidManifest.xml
